…
## Rows: 362
## Columns: 4
## Groups: day [31]
## $ day   <int> 1, 1, 1, 1, 1, 1, 1, 1, 1, 1, 1, 2, 2, 2, 2, 2, 2, 2, 2, 2, 2, …
## $ month <int> 2, 3, 4, 5, 6, 7, 8, 9, 10, 11, 12, 1, 2, 3, 4, 5, 6, 7, 8, 9, …
## $ avg   <dbl> 1.018431, 1.016304, 1.022133, 1.035679, 1.029436, 1.049925, 1.0…
## $ Date  <date> 2020-02-01, 2020-03-01, 2020-04-01, 2020-05-01, 2020-06-01, 20…

range(new_table$avg)

## [1] 0.9996106 1.0569074

new_table

## # A tibble: 362 x 4
## # Groups:   day [31]
##      day month   avg Date      
##    <int> <int> <dbl> <date>    
##  1     1     2  1.02 2020-02-01
##  2     1     3  1.02 2020-03-01
##  3     1     4  1.02 2020-04-01
##  4     1     5  1.04 2020-05-01
##  5     1     6  1.03 2020-06-01
##  6     1     7  1.05 2020-07-01
##  7     1     8  1.02 2020-08-01
##  8     1     9  1.02 2020-09-01
##  9     1    10  1.04 2020-10-01
## 10     1    11  1.02 2020-11-01
## # … with 352 more rows
…
